{
  "main.css": "/static/css/main.d3261ba9.chunk.css",
  "main.js": "/static/js/main.f4da59d2.chunk.js",
  "main.js.map": "/static/js/main.f4da59d2.chunk.js.map",
  "static/css/1.62ea20a4.chunk.css": "/static/css/1.62ea20a4.chunk.css",
  "static/js/1.fa145338.chunk.js": "/static/js/1.fa145338.chunk.js",
  "static/js/1.fa145338.chunk.js.map": "/static/js/1.fa145338.chunk.js.map",
  "runtime~main.js": "/static/js/runtime~main.229c360f.js",
  "runtime~main.js.map": "/static/js/runtime~main.229c360f.js.map",
  "static/css/main.d3261ba9.chunk.css.map": "/static/css/main.d3261ba9.chunk.css.map",
  "static/css/1.62ea20a4.chunk.css.map": "/static/css/1.62ea20a4.chunk.css.map",
  "index.html": "/index.html",
  "precache-manifest.3ebb235f78c5076830b52b9e932e784d.js": "/precache-manifest.3ebb235f78c5076830b52b9e932e784d.js",
  "service-worker.js": "/service-worker.js"
}